Fair Use Cases
…
fair_use_data %>%
  mutate(jurisdiction = factor(jurisdiction)) %>%
  group_by(jurisdiction, fair_use_found) %>%
  count() %>%
  group_by(jurisdiction) %>%
  mutate(perc = n/sum(n)*100) %>%
  ungroup() %>%
  tidyr::complete(jurisdiction, fair_use_found, 
                  fill = list(n=0, perc=0)) %>%
  arrange(jurisdiction, fair_use_found)

# A tibble: 28 × 4
   jurisdiction fair_use_found     n  perc
   <fct>        <lgl>          <int> <dbl>
 1 10th Circuit FALSE              2 100  
 2 10th Circuit TRUE               0   0  
 3 11th Circuit FALSE             10  76.9
 4 11th Circuit TRUE               3  23.1
 5 1st Circuit  FALSE              7  77.8
 6 1st Circuit  TRUE               2  22.2
 7 2nd Circuit  FALSE             59  60.2
 8 2nd Circuit  TRUE              39  39.8
 9 3rd Circuit  FALSE              5  62.5
10 3rd Circuit  TRUE               3  37.5
# ℹ 18 more rows
…
